…
```
#> Rows: 16492 Columns: 13
#> -- Column specification ------------------------------------
#> Delimiter: ","
#> chr  (7): country, iso2c, iso3c, region, capital, income...
#> dbl  (4): year, gdp, longitude, latitude
#> lgl  (1): status
#> date (1): lastupdated
#> 
#> i Use `spec()` to retrieve the full column specification for this data.
#> i Specify the column types or set `show_col_types = FALSE` to quiet this message.
#> # A tibble: 196 x 13
#>    country      iso2c iso3c  year     gdp status lastupdated
#>    <chr>        <chr> <chr> <dbl>   <dbl> <lgl>  <date>     
#>  1 United Stat~ US    USA    2021 2.33e13 NA     2022-12-22 
#>  2 China        CN    CHN    2021 1.77e13 NA     2022-12-22 
#>  3 Japan        JP    JPN    2021 4.94e12 NA     2022-12-22 
#>  4 Germany      DE    DEU    2021 4.26e12 NA     2022-12-22 
#>  5 India        IN    IND    2021 3.18e12 NA     2022-12-22 
#>  6 United King~ GB    GBR    2021 3.13e12 NA     2022-12-22 
#>  7 France       FR    FRA    2021 2.96e12 NA     2022-12-22 
#>  8 Italy        IT    ITA    2021 2.11e12 NA     2022-12-22 
#>  9 Canada       CA    CAN    2021 1.99e12 NA     2022-12-22 
#> 10 Korea, Rep.  KR    KOR    2021 1.81e12 NA     2022-12-22 
#> # i 186 more rows
#> # i 6 more variables: region <chr>, capital <chr>,
#> #   longitude <dbl>, latitude <dbl>, income <chr>,
#> #   lending <chr>
```
…
`WDI` パッケージで、データをダウンロードしたり、探したり、詳細情報を得たりできます。

### 指標 WDI 検索

まず、検索です。上で、サイトから調べる方法を紹介しましたが、`WDI` パッケージの、`WDIsearch` でも探すことができます。詳細は、右下の窓枠の Help タブの検索窓に、WDIsearch といれて調べて見てください。ここでは、二種類の検索方法を紹介します。

#### 検索例 1（WDI名）

WDI 名に、ある文字列が含まれているものを検索します。検索文字列は、大文字・小文字は関係ありません。


```r
WDIsearch(string = "gdp", field = "name", short = TRUE, cache = NULL) %>%
  as_tibble()
#> # A tibble: 540 x 2
#>    indicator            name                                
#>    <chr>                <chr>                               
#>  1 5.51.01.10.gdp       "Per capita GDP growth"             
#>  2 6.0.GDP_current      "GDP (current $)"                   
#>  3 6.0.GDP_growth       "GDP growth (annual %)"             
#>  4 6.0.GDP_usd          "GDP (constant 2005 $)"             
#>  5 6.0.GDPpc_constant   "GDP per capita, PPP (constant 2011~
#>  6 BG.GSR.NFSV.GD.ZS    "Trade in services (% of GDP)"      
#>  7 BG.KAC.FNEI.GD.PP.ZS "Gross private capital flows (% of ~
#>  8 BG.KAC.FNEI.GD.ZS    "Gross private capital flows (% of ~
#>  9 BG.KLT.DINV.GD.PP.ZS "Gross foreign direct investment (%~
#> 10 BG.KLT.DINV.GD.ZS    "Gross foreign direct investment (%~
#> # ... with 530 more rows
```
…
```
#> Rows: 16492 Columns: 5
#> -- Column specification ------------------------------------
#> Delimiter: ","
#> chr (3): country, iso2c, iso3c
#> dbl (2): year, NY.GDP.MKTP.CD
#> 
#> i Use `spec()` to retrieve the full column specification for this data.
#> i Specify the column types or set `show_col_types = FALSE` to quiet this message.
#> # A tibble: 16,492 x 5
#>    country                  iso2c iso3c  year NY.GDP.MKTP.CD
#>    <chr>                    <chr> <chr> <dbl>          <dbl>
#>  1 Africa Eastern and Sout~ ZH    AFE    2021        1.08e12
#>  2 Africa Eastern and Sout~ ZH    AFE    2020        9.27e11
#>  3 Africa Eastern and Sout~ ZH    AFE    2019        1.00e12
#>  4 Africa Eastern and Sout~ ZH    AFE    2018        1.01e12
#>  5 Africa Eastern and Sout~ ZH    AFE    2017        1.02e12
#>  6 Africa Eastern and Sout~ ZH    AFE    2016        8.83e11
#>  7 Africa Eastern and Sout~ ZH    AFE    2015        9.25e11
#>  8 Africa Eastern and Sout~ ZH    AFE    2014        1.00e12
#>  9 Africa Eastern and Sout~ ZH    AFE    2013        9.83e11
#> 10 Africa Eastern and Sout~ ZH    AFE    2012        9.73e11
#> # i 16,482 more rows
```
…
```
#> Rows: 16492 Columns: 5
#> -- Column specification ------------------------------------
#> Delimiter: ","
#> chr (3): country, iso2c, iso3c
#> dbl (2): year, gdp
#> 
#> i Use `spec()` to retrieve the full column specification for this data.
#> i Specify the column types or set `show_col_types = FALSE` to quiet this message.
#> # A tibble: 16,492 x 5
#>    country                     iso2c iso3c  year     gdp
#>    <chr>                       <chr> <chr> <dbl>   <dbl>
#>  1 Africa Eastern and Southern ZH    AFE    2021 1.08e12
#>  2 Africa Eastern and Southern ZH    AFE    2020 9.27e11
#>  3 Africa Eastern and Southern ZH    AFE    2019 1.00e12
#>  4 Africa Eastern and Southern ZH    AFE    2018 1.01e12
#>  5 Africa Eastern and Southern ZH    AFE    2017 1.02e12
#>  6 Africa Eastern and Southern ZH    AFE    2016 8.83e11
#>  7 Africa Eastern and Southern ZH    AFE    2015 9.25e11
#>  8 Africa Eastern and Southern ZH    AFE    2014 1.00e12
#>  9 Africa Eastern and Southern ZH    AFE    2013 9.83e11
#> 10 Africa Eastern and Southern ZH    AFE    2012 9.73e11
#> # i 16,482 more rows
```
…
```
#> Rows: 16492 Columns: 13
#> -- Column specification ------------------------------------
#> Delimiter: ","
#> chr  (7): country, iso2c, iso3c, region, capital, income...
#> dbl  (4): year, gdp, longitude, latitude
#> lgl  (1): status
#> date (1): lastupdated
#> 
#> i Use `spec()` to retrieve the full column specification for this data.
#> i Specify the column types or set `show_col_types = FALSE` to quiet this message.
#> # A tibble: 16,492 x 13
#>    country     iso2c iso3c  year      gdp status lastupdated
#>    <chr>       <chr> <chr> <dbl>    <dbl> <lgl>  <date>     
#>  1 Afghanistan AF    AFG    2021  1.48e10 NA     2022-12-22 
#>  2 Afghanistan AF    AFG    2020  2.01e10 NA     2022-12-22 
#>  3 Afghanistan AF    AFG    2019  1.89e10 NA     2022-12-22 
#>  4 Afghanistan AF    AFG    2018  1.84e10 NA     2022-12-22 
#>  5 Afghanistan AF    AFG    2017  1.89e10 NA     2022-12-22 
#>  6 Afghanistan AF    AFG    2016  1.80e10 NA     2022-12-22 
#>  7 Afghanistan AF    AFG    2015  2.00e10 NA     2022-12-22 
#>  8 Afghanistan AF    AFG    2014  2.06e10 NA     2022-12-22 
#>  9 Afghanistan AF    AFG    2013  2.06e10 NA     2022-12-22 
#> 10 Afghanistan AF    AFG    2012  2.02e10 NA     2022-12-22 
#> # i 16,482 more rows
#> # i 6 more variables: region <chr>, capital <chr>,
#> #   longitude <dbl>, latitude <dbl>, income <chr>,
#> #   lending <chr>
```
…
```
#> Rows: 372 Columns: 13
#> -- Column specification ------------------------------------
#> Delimiter: ","
#> chr  (7): country, iso2c, iso3c, region, capital, income...
#> dbl  (4): year, gdp, longitude, latitude
#> lgl  (1): status
#> date (1): lastupdated
#> 
#> i Use `spec()` to retrieve the full column specification for this data.
#> i Specify the column types or set `show_col_types = FALSE` to quiet this message.
#> # A tibble: 372 x 13
#>    country iso2c iso3c  year     gdp status lastupdated
#>    <chr>   <chr> <chr> <dbl>   <dbl> <lgl>  <date>     
#>  1 China   CN    CHN    2021 1.77e13 NA     2022-12-22 
#>  2 China   CN    CHN    2020 1.47e13 NA     2022-12-22 
#>  3 China   CN    CHN    2019 1.43e13 NA     2022-12-22 
#>  4 China   CN    CHN    2018 1.39e13 NA     2022-12-22 
#>  5 China   CN    CHN    2017 1.23e13 NA     2022-12-22 
#>  6 China   CN    CHN    2016 1.12e13 NA     2022-12-22 
#>  7 China   CN    CHN    2015 1.11e13 NA     2022-12-22 
#>  8 China   CN    CHN    2014 1.05e13 NA     2022-12-22 
#>  9 China   CN    CHN    2013 9.57e12 NA     2022-12-22 
#> 10 China   CN    CHN    2012 8.53e12 NA     2022-12-22 
#> # i 362 more rows
#> # i 6 more variables: region <chr>, capital <chr>,
#> #   longitude <dbl>, latitude <dbl>, income <chr>,
#> #   lending <chr>
```
…
```
#> Rows: 23972 Columns: 14
#> -- Column specification ------------------------------------
#> Delimiter: ","
#> chr  (7): country, iso2c, iso3c, region, capital, income...
#> dbl  (5): year, gdp_deflator, cpi_price, longitude, lati...
#> lgl  (1): status
#> date (1): lastupdated
#> 
#> i Use `spec()` to retrieve the full column specification for this data.
#> i Specify the column types or set `show_col_types = FALSE` to quiet this message.
#> # A tibble: 23,972 x 14
#>    country iso2c iso3c  year status lastupdated gdp_deflator
#>    <chr>   <chr> <chr> <dbl> <lgl>  <date>             <dbl>
#>  1 Advanc~ AME   <NA>   1987 NA     2020-07-27            NA
#>  2 Advanc~ AME   <NA>   1988 NA     2020-07-27            NA
#>  3 Advanc~ AME   <NA>   1989 NA     2020-07-27            NA
#>  4 Advanc~ AME   <NA>   1990 NA     2020-07-27            NA
#>  5 Advanc~ AME   <NA>   1991 NA     2020-07-27            NA
#>  6 Advanc~ AME   <NA>   1992 NA     2020-07-27            NA
#>  7 Advanc~ AME   <NA>   1993 NA     2020-07-27            NA
#>  8 Advanc~ AME   <NA>   1994 NA     2020-07-27            NA
#>  9 Advanc~ AME   <NA>   1995 NA     2020-07-27            NA
#> 10 Advanc~ AME   <NA>   1996 NA     2020-07-27            NA
#> # i 23,962 more rows
#> # i 7 more variables: cpi_price <dbl>, region <chr>,
#> #   capital <chr>, longitude <dbl>, latitude <dbl>,
#> #   income <chr>, lending <chr>
```
…
NY.GDP.PCAP.CD: GDP per capita (current US$)


```r
df_wdi_gdppcap <- WDI(country = "all", indicator = c(gdp_pcap = "NY.GDP.PCAP.CD"))
write_csv(df_wdi_gdppcap, "./data/df_wdi_gdppcap.csv")
```




```r
df_wdi_gdppcap
#> # A tibble: 16,492 x 5
#>    country                     iso2c iso3c  year gdp_pcap
#>    <chr>                       <chr> <chr> <dbl>    <dbl>
#>  1 Africa Eastern and Southern ZH    AFE    2021    1550.
#>  2 Africa Eastern and Southern ZH    AFE    2020    1364.
#>  3 Africa Eastern and Southern ZH    AFE    2019    1512.
#>  4 Africa Eastern and Southern ZH    AFE    2018    1565.
#>  5 Africa Eastern and Southern ZH    AFE    2017    1629.
#>  6 Africa Eastern and Southern ZH    AFE    2016    1444.
#>  7 Africa Eastern and Southern ZH    AFE    2015    1539.
#>  8 Africa Eastern and Southern ZH    AFE    2014    1719.
#>  9 Africa Eastern and Southern ZH    AFE    2013    1730.
#> 10 Africa Eastern and Southern ZH    AFE    2012    1759.
#> # i 16,482 more rows
```

### データ変形・整形 - Data Transformation

#### 列を `select`

どの変数について分析するかを選ぶ。


```r
df_wdi_gdppcap_small <- df_wdi_gdppcap %>% 
  select(country, year, gdp_pcap)
df_wdi_gdppcap_small
#> # A tibble: 16,492 x 3
#>    country                      year gdp_pcap
#>    <chr>                       <dbl>    <dbl>
#>  1 Africa Eastern and Southern  2021    1550.
#>  2 Africa Eastern and Southern  2020    1364.
#>  3 Africa Eastern and Southern  2019    1512.
#>  4 Africa Eastern and Southern  2018    1565.
#>  5 Africa Eastern and Southern  2017    1629.
#>  6 Africa Eastern and Southern  2016    1444.
#>  7 Africa Eastern and Southern  2015    1539.
#>  8 Africa Eastern and Southern  2014    1719.
#>  9 Africa Eastern and Southern  2013    1730.
#> 10 Africa Eastern and Southern  2012    1759.
#> # i 16,482 more rows
```

#### 行を `filter`

いくつかの国に、フォーカスして調べる。


```r
df_wdi_gdppcap_short <- df_wdi_gdppcap %>% 
  filter(country %in% c("Japan", "Germany", "United States"))
df_wdi_gdppcap_short
#> # A tibble: 186 x 5
#>    country iso2c iso3c  year gdp_pcap
#>    <chr>   <chr> <chr> <dbl>    <dbl>
#>  1 Germany DE    DEU    2021   51204.
#>  2 Germany DE    DEU    2020   46773.
#>  3 Germany DE    DEU    2019   46794.
#>  4 Germany DE    DEU    2018   47939.
#>  5 Germany DE    DEU    2017   44653.
#>  6 Germany DE    DEU    2016   42136.
#>  7 Germany DE    DEU    2015   41103.
#>  8 Germany DE    DEU    2014   48024.
#>  9 Germany DE    DEU    2013   46299.
#> 10 Germany DE    DEU    2012   43856.
#> # i 176 more rows
```

列（変数）と、行（国）の選択を続けて、実行すると次のようになる。
一つ一つ変形したデータ（オブジェクト）に名前をつけて、保存する必要がないので、パイプ（`%>% `）の活用は有用である。


```r
df_wdi_gdppcap_small_short <- df_wdi_gdppcap %>% select(country, year, gdp_pcap) %>%
  filter(country %in% c("Japan", "Germany", "United States"))
df_wdi_gdppcap_small_short
#> # A tibble: 186 x 3
#>    country  year gdp_pcap
#>    <chr>   <dbl>    <dbl>
#>  1 Germany  2021   51204.
#>  2 Germany  2020   46773.
#>  3 Germany  2019   46794.
#>  4 Germany  2018   47939.
#>  5 Germany  2017   44653.
#>  6 Germany  2016   42136.
#>  7 Germany  2015   41103.
#>  8 Germany  2014   48024.
#>  9 Germany  2013   46299.
#> 10 Germany  2012   43856.
#> # i 176 more rows
```
…
