…
```r
library(tidyverse)
library(gapminder)
library(WDI)
```

#### R Package `gapminder` data

We will use a `tidyverse` function `slice` replacing `head`. Check `slice` in the search window under the Help tab on the bottom right pane.


```r
df_gm <- gapminder
df_gm
#> # A tibble: 1,704 × 6
#>    country     continent  year lifeExp      pop gdpPercap
#>    <fct>       <fct>     <int>   <dbl>    <int>     <dbl>
#>  1 Afghanistan Asia       1952    28.8  8425333      779.
#>  2 Afghanistan Asia       1957    30.3  9240934      821.
#>  3 Afghanistan Asia       1962    32.0 10267083      853.
#>  4 Afghanistan Asia       1967    34.0 11537966      836.
#>  5 Afghanistan Asia       1972    36.1 13079460      740.
#>  6 Afghanistan Asia       1977    38.4 14880372      786.
#>  7 Afghanistan Asia       1982    39.9 12881816      978.
#>  8 Afghanistan Asia       1987    40.8 13867957      852.
#>  9 Afghanistan Asia       1992    41.7 16317921      649.
#> 10 Afghanistan Asia       1997    41.8 22227415      635.
#> # ℹ 1,694 more rows
```
…
```r
df_gm %>% filter(country == "Afghanistan") %>%
  ggplot(aes(x = year, y = lifeExp)) + geom_line()
```

<img src="25-transform_files/figure-html/unnamed-chunk-21-1.png" width="672" />

アフガニスタンでは 1952年 の誕生時の平均寿命（life expectancy at birth）は　30歳以下 （28.8歳）でした。2007年でも50歳以下（48.8 歳）のようですね。改善されていることも確かです。

アフガニスタンと日本両方を抽出してみましょう。そのときは、 `country %in% c("Afghanistan", "Japan")`　とします。


```r
df_gm %>% filter(country %in% c("Afghanistan", "Japan"))
#> # A tibble: 24 × 6
#>    country     continent  year lifeExp      pop gdpPercap
#>    <fct>       <fct>     <int>   <dbl>    <int>     <dbl>
#>  1 Afghanistan Asia       1952    28.8  8425333      779.
#>  2 Afghanistan Asia       1957    30.3  9240934      821.
#>  3 Afghanistan Asia       1962    32.0 10267083      853.
#>  4 Afghanistan Asia       1967    34.0 11537966      836.
#>  5 Afghanistan Asia       1972    36.1 13079460      740.
#>  6 Afghanistan Asia       1977    38.4 14880372      786.
#>  7 Afghanistan Asia       1982    39.9 12881816      978.
#>  8 Afghanistan Asia       1987    40.8 13867957      852.
#>  9 Afghanistan Asia       1992    41.7 16317921      649.
#> 10 Afghanistan Asia       1997    41.8 22227415      635.
#> # ℹ 14 more rows
```
…
