…
```r
df_wdi_extra
#> # A tibble: 16,758 × 15
#>    country     iso2c iso3c  year status lastupdated lifeExp
#>    <chr>       <chr> <chr> <dbl> <lgl>  <date>        <dbl>
#>  1 Afghanistan AF    AFG    2014 NA     2023-07-25     62.5
#>  2 Afghanistan AF    AFG    2012 NA     2023-07-25     61.9
#>  3 Afghanistan AF    AFG    2009 NA     2023-07-25     60.4
#>  4 Afghanistan AF    AFG    2013 NA     2023-07-25     62.4
#>  5 Afghanistan AF    AFG    1971 NA     2023-07-25     37.9
#>  6 Afghanistan AF    AFG    2015 NA     2023-07-25     62.7
#>  7 Afghanistan AF    AFG    1969 NA     2023-07-25     36.9
#>  8 Afghanistan AF    AFG    2010 NA     2023-07-25     60.9
#>  9 Afghanistan AF    AFG    2011 NA     2023-07-25     61.4
#> 10 Afghanistan AF    AFG    2008 NA     2023-07-25     59.9
#> # ℹ 16,748 more rows
#> # ℹ 8 more variables: pop <dbl>, gdpPercap <dbl>,
#> #   region <chr>, capital <chr>, longitude <dbl>,
#> #   latitude <dbl>, income <chr>, lending <chr>
```
…
```r
df_wdi_extra
#> # A tibble: 16,758 × 15
#>    country     iso2c iso3c  year status lastupdated lifeExp
#>    <chr>       <chr> <chr> <dbl> <lgl>  <date>        <dbl>
#>  1 Afghanistan AF    AFG    2014 NA     2023-07-25     62.5
#>  2 Afghanistan AF    AFG    2012 NA     2023-07-25     61.9
#>  3 Afghanistan AF    AFG    2009 NA     2023-07-25     60.4
#>  4 Afghanistan AF    AFG    2013 NA     2023-07-25     62.4
#>  5 Afghanistan AF    AFG    1971 NA     2023-07-25     37.9
#>  6 Afghanistan AF    AFG    2015 NA     2023-07-25     62.7
#>  7 Afghanistan AF    AFG    1969 NA     2023-07-25     36.9
#>  8 Afghanistan AF    AFG    2010 NA     2023-07-25     60.9
#>  9 Afghanistan AF    AFG    2011 NA     2023-07-25     61.4
#> 10 Afghanistan AF    AFG    2008 NA     2023-07-25     59.9
#> # ℹ 16,748 more rows
#> # ℹ 8 more variables: pop <dbl>, gdpPercap <dbl>,
#> #   region <chr>, capital <chr>, longitude <dbl>,
#> #   latitude <dbl>, income <chr>, lending <chr>
```
…
