…
使われたモデルの定義式（The function and the parameters used to create the model）

#### Residuals（残差）

残差は、実際の値から、予測値を差し引いた値（Difference between what the model predicted and the actual value of y）：$e_i = y_i - \hat{y}_i$

その、分布の、最小値、第一四分位、中央値、第三四分位、最大値が表示されています。次のようにしても、表示できます。

Tidymodels に含まれる、`broom` パッケージの `augument()` 関数を使うと、予測値 predicted values (pred) または、fitted values は、.fitted 列に、残差 residues は、.resid に追加されます。（他の列については、さしあたって不要ですが、Help などを参照してください。）


```r
df_iris0 |> lm(Petal.Length ~ Petal.Width, data = _) |> augment()
#> # A tibble: 100 × 8
#>    Petal.Length Petal.Width .fitted  .resid   .hat .sigma
#>           <dbl>       <dbl>   <dbl>   <dbl>  <dbl>  <dbl>
#>  1          4.7         1.4    4.46  0.236  0.0143  0.473
#>  2          4.5         1.5    4.62 -0.124  0.0117  0.473
#>  3          4.9         1.5    4.62  0.276  0.0117  0.473
#>  4          4           1.3    4.30 -0.304  0.0179  0.472
#>  5          4.6         1.5    4.62 -0.0244 0.0117  0.473
#>  6          4.5         1.3    4.30  0.196  0.0179  0.473
#>  7          4.7         1.6    4.78 -0.0844 0.0103  0.473
#>  8          3.3         1      3.82 -0.524  0.0356  0.470
#>  9          4.6         1.3    4.30  0.296  0.0179  0.472
#> 10          3.9         1.4    4.46 -0.564  0.0143  0.470
#> # ℹ 90 more rows
#> # ℹ 2 more variables: .cooksd <dbl>, .std.resid <dbl>
```
…
```r
wdi_world
#> # A tibble: 8,778 × 18
#>    country     iso2c iso3c  year status lastupdated gdpPcap
#>    <chr>       <chr> <chr> <dbl> <lgl>  <date>        <dbl>
#>  1 Afghanistan AF    AFG    1990 NA     2023-07-25      NA 
#>  2 Afghanistan AF    AFG    1991 NA     2023-07-25      NA 
#>  3 Afghanistan AF    AFG    1993 NA     2023-07-25      NA 
#>  4 Afghanistan AF    AFG    2015 NA     2023-07-25     592.
#>  5 Afghanistan AF    AFG    1999 NA     2023-07-25      NA 
#>  6 Afghanistan AF    AFG    1992 NA     2023-07-25      NA 
#>  7 Afghanistan AF    AFG    1996 NA     2023-07-25      NA 
#>  8 Afghanistan AF    AFG    1997 NA     2023-07-25      NA 
#>  9 Afghanistan AF    AFG    2002 NA     2023-07-25     360.
#> 10 Afghanistan AF    AFG    2013 NA     2023-07-25     608.
#> # ℹ 8,768 more rows
#> # ℹ 11 more variables: lifeExp <dbl>, pop <dbl>,
#> #   research <dbl>, military <dbl>, education <dbl>,
#> #   region <chr>, capital <chr>, longitude <dbl>,
#> #   latitude <dbl>, income <chr>, lending <chr>
```
…
```r
wdi_world_el %>% filter(year==2020) %>% arrange(desc(education))
#> # A tibble: 156 × 10
#>    country    year education lifeExp gdpPcap    pop research
#>    <chr>     <dbl>     <dbl>   <dbl>   <dbl>  <dbl>    <dbl>
#>  1 Marshall…  2020     13.6     65.0   5041. 4.34e4   NA    
#>  2 Solomon …  2020     12.8     70.2   2080. 6.91e5   NA    
#>  3 Bolivia    2020      9.84    64.5   2920. 1.19e7   NA    
#>  4 Namibia    2020      9.45    62.8   4152. 2.49e6   NA    
#>  5 Sierra L…  2020      8.81    59.8    608. 8.23e6   NA    
#>  6 Botswana   2020      8.74    65.6   5811. 2.55e6   NA    
#>  7 Saudi Ar…  2020      7.81    76.2  18857. 3.60e7    0.522
#>  8 Iceland    2020      7.72    83.1  52442. 3.66e5    2.47 
#>  9 Lesotho    2020      7.67    54.7    969. 2.25e6   NA    
#> 10 Cabo Ver…  2020      7.58    74.8   2950. 5.83e5   NA    
#> # ℹ 146 more rows
#> # ℹ 3 more variables: military <dbl>, region <chr>,
#> #   income <chr>
```


```r
wdi_world_el %>% filter(year==2020) %>% arrange(desc(education))
#> # A tibble: 156 × 10
#>    country    year education lifeExp gdpPcap    pop research
#>    <chr>     <dbl>     <dbl>   <dbl>   <dbl>  <dbl>    <dbl>
#>  1 Marshall…  2020     13.6     65.0   5041. 4.34e4   NA    
#>  2 Solomon …  2020     12.8     70.2   2080. 6.91e5   NA    
#>  3 Bolivia    2020      9.84    64.5   2920. 1.19e7   NA    
#>  4 Namibia    2020      9.45    62.8   4152. 2.49e6   NA    
#>  5 Sierra L…  2020      8.81    59.8    608. 8.23e6   NA    
#>  6 Botswana   2020      8.74    65.6   5811. 2.55e6   NA    
#>  7 Saudi Ar…  2020      7.81    76.2  18857. 3.60e7    0.522
#>  8 Iceland    2020      7.72    83.1  52442. 3.66e5    2.47 
#>  9 Lesotho    2020      7.67    54.7    969. 2.25e6   NA    
#> 10 Cabo Ver…  2020      7.58    74.8   2950. 5.83e5   NA    
#> # ℹ 146 more rows
#> # ℹ 3 more variables: military <dbl>, region <chr>,
#> #   income <chr>
```
…
