…
```         
df_gdp |> head()
df_gdp |> str()
```

なども可能です。かっこの中に最初に入るものが直前のもの、ここでは、データになっています。

#### 必要に応じて整形 Transform data

変数が多いので、日本の部分だけ `filter` を使って選択します。country が Japan と一致する場合のみを選択するときは、`==` を使います。数値ではないので、引用符をつけます。半角を使ってください。


```r
df_gdp |> filter(country == "Japan")
#> # A tibble: 63 × 13
#>    country iso2c iso3c  year     gdp status lastupdated
#>    <chr>   <chr> <chr> <dbl>   <dbl> <lgl>  <date>     
#>  1 Japan   JP    JPN    2022 4.23e12 NA     2023-07-25 
#>  2 Japan   JP    JPN    2021 5.01e12 NA     2023-07-25 
#>  3 Japan   JP    JPN    2020 5.05e12 NA     2023-07-25 
#>  4 Japan   JP    JPN    2019 5.12e12 NA     2023-07-25 
#>  5 Japan   JP    JPN    2018 5.04e12 NA     2023-07-25 
#>  6 Japan   JP    JPN    2017 4.93e12 NA     2023-07-25 
#>  7 Japan   JP    JPN    2016 5.00e12 NA     2023-07-25 
#>  8 Japan   JP    JPN    2015 4.44e12 NA     2023-07-25 
#>  9 Japan   JP    JPN    2014 4.90e12 NA     2023-07-25 
#> 10 Japan   JP    JPN    2013 5.21e12 NA     2023-07-25 
#> # ℹ 53 more rows
#> # ℹ 6 more variables: region <chr>, capital <chr>,
#> #   longitude <dbl>, latitude <dbl>, income <chr>,
#> #   lending <chr>
```
…
```         
df_gdp |> drop_na(gdp) |> ggplot(aes(x = year)) + geom_bar()
```

バー・グラフを使いますが、`gdp` の値が、欠損値（NA: not available）のデータを削除してから、グラフを描きます。

##### 2021年のGDPの降順での表示（１）

最新の2021年のデータはすべてあるわけではなさそうですが、`gdp` の値が大きい順に並べてみましょう。


```r
df_gdp |> filter(year == 2021) |> drop_na(gdp) |> arrange(desc(gdp))
#> # A tibble: 251 × 13
#>    country      iso2c iso3c  year     gdp status lastupdated
#>    <chr>        <chr> <chr> <dbl>   <dbl> <lgl>  <date>     
#>  1 World        1W    WLD    2021 9.69e13 NA     2023-07-25 
#>  2 High income  XD    <NA>   2021 6.00e13 NA     2023-07-25 
#>  3 OECD members OE    OED    2021 5.84e13 NA     2023-07-25 
#>  4 Post-demogr… V4    PST    2021 5.51e13 NA     2023-07-25 
#>  5 IDA & IBRD … ZT    IBT    2021 3.82e13 NA     2023-07-25 
#>  6 Low & middl… XO    LMY    2021 3.65e13 NA     2023-07-25 
#>  7 Middle inco… XP    MIC    2021 3.61e13 NA     2023-07-25 
#>  8 IBRD only    XF    IBD    2021 3.56e13 NA     2023-07-25 
#>  9 East Asia &… Z4    EAS    2021 3.11e13 NA     2023-07-25 
#> 10 Upper middl… XT    <NA>   2021 2.85e13 NA     2023-07-25 
#> # ℹ 241 more rows
#> # ℹ 6 more variables: region <chr>, capital <chr>,
#> #   longitude <dbl>, latitude <dbl>, income <chr>,
#> #   lending <chr>
```

##### 2021年のGDPの降順での表示（２）

最初に、World と表示され、グループや、カテゴリーのデータもあるようですから、それを、まず、削除することが必要です。`region` の列を見ると、World などは、Aggregates となっているので、そのようなものを削除すればよさそうです。数値の大きい順に並べたいので、`desc` 降順（descending order）にします。


```r
df_gdp |> filter(year == 2021, region != "Aggregates") |> 
  drop_na(gdp) |> arrange(desc(gdp))
#> # A tibble: 202 × 13
#>    country      iso2c iso3c  year     gdp status lastupdated
#>    <chr>        <chr> <chr> <dbl>   <dbl> <lgl>  <date>     
#>  1 United Stat… US    USA    2021 2.33e13 NA     2023-07-25 
#>  2 China        CN    CHN    2021 1.78e13 NA     2023-07-25 
#>  3 Japan        JP    JPN    2021 5.01e12 NA     2023-07-25 
#>  4 Germany      DE    DEU    2021 4.26e12 NA     2023-07-25 
#>  5 India        IN    IND    2021 3.15e12 NA     2023-07-25 
#>  6 United King… GB    GBR    2021 3.12e12 NA     2023-07-25 
#>  7 France       FR    FRA    2021 2.96e12 NA     2023-07-25 
#>  8 Italy        IT    ITA    2021 2.11e12 NA     2023-07-25 
#>  9 Canada       CA    CAN    2021 2.00e12 NA     2023-07-25 
#> 10 Russian Fed… RU    RUS    2021 1.84e12 NA     2023-07-25 
#> # ℹ 192 more rows
#> # ℹ 6 more variables: region <chr>, capital <chr>,
#> #   longitude <dbl>, latitude <dbl>, income <chr>,
#> #   lending <chr>
```
…
