…
```
#> Rows: 16492 Columns: 13
#> ── Column specification ────────────────────────────────────
#> Delimiter: ","
#> chr  (7): country, iso2c, iso3c, region, capital, income...
#> dbl  (4): year, gdp, longitude, latitude
#> lgl  (1): status
#> date (1): lastupdated
#> 
#> ℹ Use `spec()` to retrieve the full column specification for this data.
#> ℹ Specify the column types or set `show_col_types = FALSE` to quiet this message.
#> # A tibble: 196 × 13
#>    country       iso2c iso3c  year     gdp status lastupda…¹
#>    <chr>         <chr> <chr> <dbl>   <dbl> <lgl>  <date>    
#>  1 United States US    USA    2021 2.33e13 NA     2022-12-22
#>  2 China         CN    CHN    2021 1.77e13 NA     2022-12-22
#>  3 Japan         JP    JPN    2021 4.94e12 NA     2022-12-22
#>  4 Germany       DE    DEU    2021 4.26e12 NA     2022-12-22
#>  5 India         IN    IND    2021 3.18e12 NA     2022-12-22
#>  6 United Kingd… GB    GBR    2021 3.13e12 NA     2022-12-22
#>  7 France        FR    FRA    2021 2.96e12 NA     2022-12-22
#>  8 Italy         IT    ITA    2021 2.11e12 NA     2022-12-22
#>  9 Canada        CA    CAN    2021 1.99e12 NA     2022-12-22
#> 10 Korea, Rep.   KR    KOR    2021 1.81e12 NA     2022-12-22
#> # … with 186 more rows, 6 more variables: region <chr>,
#> #   capital <chr>, longitude <dbl>, latitude <dbl>,
#> #   income <chr>, lending <chr>, and abbreviated variable
#> #   name ¹​lastupdated
```
…
```
#> Rows: 16492 Columns: 5
#> ── Column specification ────────────────────────────────────
#> Delimiter: ","
#> chr (3): country, iso2c, iso3c
#> dbl (2): year, NY.GDP.MKTP.CD
#> 
#> ℹ Use `spec()` to retrieve the full column specification for this data.
#> ℹ Specify the column types or set `show_col_types = FALSE` to quiet this message.
#> # A tibble: 16,492 × 5
#>    country                     iso2c iso3c  year NY.GDP.MK…¹
#>    <chr>                       <chr> <chr> <dbl>       <dbl>
#>  1 Africa Eastern and Southern ZH    AFE    2021     1.08e12
#>  2 Africa Eastern and Southern ZH    AFE    2020     9.27e11
#>  3 Africa Eastern and Southern ZH    AFE    2019     1.00e12
#>  4 Africa Eastern and Southern ZH    AFE    2018     1.01e12
#>  5 Africa Eastern and Southern ZH    AFE    2017     1.02e12
#>  6 Africa Eastern and Southern ZH    AFE    2016     8.83e11
#>  7 Africa Eastern and Southern ZH    AFE    2015     9.25e11
#>  8 Africa Eastern and Southern ZH    AFE    2014     1.00e12
#>  9 Africa Eastern and Southern ZH    AFE    2013     9.83e11
#> 10 Africa Eastern and Southern ZH    AFE    2012     9.73e11
#> # … with 16,482 more rows, and abbreviated variable name
#> #   ¹​NY.GDP.MKTP.CD
```
…
```
#> Rows: 16492 Columns: 5
#> ── Column specification ────────────────────────────────────
#> Delimiter: ","
#> chr (3): country, iso2c, iso3c
#> dbl (2): year, gdp
#> 
#> ℹ Use `spec()` to retrieve the full column specification for this data.
#> ℹ Specify the column types or set `show_col_types = FALSE` to quiet this message.
#> # A tibble: 16,492 × 5
#>    country                     iso2c iso3c  year     gdp
#>    <chr>                       <chr> <chr> <dbl>   <dbl>
#>  1 Africa Eastern and Southern ZH    AFE    2021 1.08e12
#>  2 Africa Eastern and Southern ZH    AFE    2020 9.27e11
#>  3 Africa Eastern and Southern ZH    AFE    2019 1.00e12
#>  4 Africa Eastern and Southern ZH    AFE    2018 1.01e12
#>  5 Africa Eastern and Southern ZH    AFE    2017 1.02e12
#>  6 Africa Eastern and Southern ZH    AFE    2016 8.83e11
#>  7 Africa Eastern and Southern ZH    AFE    2015 9.25e11
#>  8 Africa Eastern and Southern ZH    AFE    2014 1.00e12
#>  9 Africa Eastern and Southern ZH    AFE    2013 9.83e11
#> 10 Africa Eastern and Southern ZH    AFE    2012 9.73e11
#> # … with 16,482 more rows
```
…
```
#> Rows: 16492 Columns: 13
#> ── Column specification ────────────────────────────────────
#> Delimiter: ","
#> chr  (7): country, iso2c, iso3c, region, capital, income...
#> dbl  (4): year, gdp, longitude, latitude
#> lgl  (1): status
#> date (1): lastupdated
#> 
#> ℹ Use `spec()` to retrieve the full column specification for this data.
#> ℹ Specify the column types or set `show_col_types = FALSE` to quiet this message.
#> # A tibble: 16,492 × 13
#>    country     iso2c iso3c  year       gdp status lastupda…¹
#>    <chr>       <chr> <chr> <dbl>     <dbl> <lgl>  <date>    
#>  1 Afghanistan AF    AFG    2021   1.48e10 NA     2022-12-22
#>  2 Afghanistan AF    AFG    2020   2.01e10 NA     2022-12-22
#>  3 Afghanistan AF    AFG    2019   1.89e10 NA     2022-12-22
#>  4 Afghanistan AF    AFG    2018   1.84e10 NA     2022-12-22
#>  5 Afghanistan AF    AFG    2017   1.89e10 NA     2022-12-22
#>  6 Afghanistan AF    AFG    2016   1.80e10 NA     2022-12-22
#>  7 Afghanistan AF    AFG    2015   2.00e10 NA     2022-12-22
#>  8 Afghanistan AF    AFG    2014   2.06e10 NA     2022-12-22
#>  9 Afghanistan AF    AFG    2013   2.06e10 NA     2022-12-22
#> 10 Afghanistan AF    AFG    2012   2.02e10 NA     2022-12-22
#> # … with 16,482 more rows, 6 more variables: region <chr>,
#> #   capital <chr>, longitude <dbl>, latitude <dbl>,
#> #   income <chr>, lending <chr>, and abbreviated variable
#> #   name ¹​lastupdated
```
…
```
#> Rows: 372 Columns: 13
#> ── Column specification ────────────────────────────────────
#> Delimiter: ","
#> chr  (7): country, iso2c, iso3c, region, capital, income...
#> dbl  (4): year, gdp, longitude, latitude
#> lgl  (1): status
#> date (1): lastupdated
#> 
#> ℹ Use `spec()` to retrieve the full column specification for this data.
#> ℹ Specify the column types or set `show_col_types = FALSE` to quiet this message.
#> # A tibble: 372 × 13
#>    country iso2c iso3c  year     gdp status lastupdated
#>    <chr>   <chr> <chr> <dbl>   <dbl> <lgl>  <date>     
#>  1 China   CN    CHN    2021 1.77e13 NA     2022-12-22 
#>  2 China   CN    CHN    2020 1.47e13 NA     2022-12-22 
#>  3 China   CN    CHN    2019 1.43e13 NA     2022-12-22 
#>  4 China   CN    CHN    2018 1.39e13 NA     2022-12-22 
#>  5 China   CN    CHN    2017 1.23e13 NA     2022-12-22 
#>  6 China   CN    CHN    2016 1.12e13 NA     2022-12-22 
#>  7 China   CN    CHN    2015 1.11e13 NA     2022-12-22 
#>  8 China   CN    CHN    2014 1.05e13 NA     2022-12-22 
#>  9 China   CN    CHN    2013 9.57e12 NA     2022-12-22 
#> 10 China   CN    CHN    2012 8.53e12 NA     2022-12-22 
#> # … with 362 more rows, and 6 more variables: region <chr>,
#> #   capital <chr>, longitude <dbl>, latitude <dbl>,
#> #   income <chr>, lending <chr>
```
…
```
#> Rows: 23972 Columns: 14
#> ── Column specification ────────────────────────────────────
#> Delimiter: ","
#> chr  (7): country, iso2c, iso3c, region, capital, income...
#> dbl  (5): year, gdp_deflator, cpi_price, longitude, lati...
#> lgl  (1): status
#> date (1): lastupdated
#> 
#> ℹ Use `spec()` to retrieve the full column specification for this data.
#> ℹ Specify the column types or set `show_col_types = FALSE` to quiet this message.
#> # A tibble: 23,972 × 14
#>    country       iso2c iso3c  year status lastupda…¹ gdp_d…²
#>    <chr>         <chr> <chr> <dbl> <lgl>  <date>       <dbl>
#>  1 Advanced Eco… AME   <NA>   1987 NA     2020-07-27      NA
#>  2 Advanced Eco… AME   <NA>   1988 NA     2020-07-27      NA
#>  3 Advanced Eco… AME   <NA>   1989 NA     2020-07-27      NA
#>  4 Advanced Eco… AME   <NA>   1990 NA     2020-07-27      NA
#>  5 Advanced Eco… AME   <NA>   1991 NA     2020-07-27      NA
#>  6 Advanced Eco… AME   <NA>   1992 NA     2020-07-27      NA
#>  7 Advanced Eco… AME   <NA>   1993 NA     2020-07-27      NA
#>  8 Advanced Eco… AME   <NA>   1994 NA     2020-07-27      NA
#>  9 Advanced Eco… AME   <NA>   1995 NA     2020-07-27      NA
#> 10 Advanced Eco… AME   <NA>   1996 NA     2020-07-27      NA
#> # … with 23,962 more rows, 7 more variables:
#> #   cpi_price <dbl>, region <chr>, capital <chr>,
#> #   longitude <dbl>, latitude <dbl>, income <chr>,
#> #   lending <chr>, and abbreviated variable names
#> #   ¹​lastupdated, ²​gdp_deflator
```
…
