…
### 統計表情報取得（estat_getStatsList()）

提供されている統計表を検索します。この関数は、結果をtbl_df（dplyrのdata.frame。data.frameとほぼ同じように扱える）として返します。

STAT_NAMEやGOV_ORGは人間が読みやすい形式のラベルになっていますが、 プログラム中で扱う場合はコードのままの方が都合がいいこともあります。そのときは.use_label = FALSEを指定してください。

```
estat_getStatsList(appId = appId, searchWord = "")
```


```r
estat_getStatsList(appId = appId, searchWord = "人口推計")
#> # A tibble: 478 × 21
#>    `@id`      STAT_NAME GOV_ORG STATISTICS_NAME TITLE CYCLE
#>    <chr>      <chr>     <chr>   <chr>           <chr> <chr>
#>  1 0000150001 人口推計  総務省  人口推計 平成3… 年齢… -    
#>  2 0000150002 人口推計  総務省  人口推計 平成3… 年齢… -    
#>  3 0000150003 人口推計  総務省  人口推計 平成3… 人口… -    
#>  4 0000150004 人口推計  総務省  人口推計 平成3… 年齢… -    
#>  5 0000150005 人口推計  総務省  人口推計 平成3… 年齢… -    
#>  6 0000150006 人口推計  総務省  人口推計 平成3… 年齢… -    
#>  7 0000150007 人口推計  総務省  人口推計 平成3… 男女… -    
#>  8 0000150008 人口推計  総務省  人口推計 平成3… 男女… -    
#>  9 0000150009 人口推計  総務省  人口推計 平成3… 年（… -    
#> 10 0000150010 人口推計  総務省  人口推計 平成3… 男女… -    
#> # ℹ 468 more rows
#> # ℹ 15 more variables: SURVEY_DATE <chr>, OPEN_DATE <chr>,
#> #   SMALL_AREA <chr>, COLLECT_AREA <chr>,
#> #   MAIN_CATEGORY <chr>, SUB_CATEGORY <chr>,
#> #   OVERALL_TOTAL_NUMBER <chr>, UPDATED_DATE <chr>,
#> #   TABULATION_CATEGORY <chr>,
#> #   TABULATION_SUB_CATEGORY1 <chr>, DESCRIPTION <chr>, …
```


```r
estat_getStatsList(appId = appId, searchWord = "外国人人口")
#> # A tibble: 38 × 22
#>    `@id`      STAT_NAME GOV_ORG STATISTICS_NAME  TITLE CYCLE
#>    <chr>      <chr>     <chr>   <chr>            <chr> <chr>
#>  1 0000150003 人口推計  総務省  人口推計 平成3…  人口… -    
#>  2 0000150022 人口推計  総務省  人口推計 平成4…  人口… -    
#>  3 0000150041 人口推計  総務省  人口推計 平成5…  人口… -    
#>  4 0000150062 人口推計  総務省  人口推計 平成6…  人口… -    
#>  5 0000150083 人口推計  総務省  人口推計 平成8…  人口… -    
#>  6 0000150115 人口推計  総務省  人口推計 平成9…  [参…  -    
#>  7 0000150137 人口推計  総務省  人口推計 平成10… [参…  -    
#>  8 0000150159 人口推計  総務省  人口推計 平成11… [参…  -    
#>  9 0000150181 人口推計  総務省  人口推計 平成13… [参…  -    
#> 10 0000150203 人口推計  総務省  人口推計 平成14… [参…  -    
#> # ℹ 28 more rows
#> # ℹ 16 more variables: SURVEY_DATE <chr>, OPEN_DATE <chr>,
#> #   SMALL_AREA <chr>, COLLECT_AREA <chr>,
#> #   MAIN_CATEGORY <chr>, SUB_CATEGORY <chr>,
#> #   OVERALL_TOTAL_NUMBER <chr>, UPDATED_DATE <chr>,
#> #   TABULATION_CATEGORY <chr>,
#> #   TABULATION_SUB_CATEGORY1 <chr>, DESCRIPTION <chr>, …
```
…
```r
estat_pop <- estat_getStatsData(appId = appId, statsDataId = "0003410379")
#> Fetching record 1-4200... (total: 4200 records)
```


```r
estat_pop
#> # A tibble: 4,200 × 11
#>    tab_code 表章項目 cat01_code 男女_時系列 area_code
#>    <chr>    <chr>    <chr>      <chr>       <chr>    
#>  1 020      人口     100        総数        00000    
#>  2 020      人口     100        総数        00000    
#>  3 020      人口     100        総数        00000    
#>  4 020      人口     100        総数        00000    
#>  5 020      人口     100        総数        00000    
#>  6 020      人口     100        総数        00000    
#>  7 020      人口     100        総数        00000    
#>  8 020      人口     100        総数        00000    
#>  9 020      人口     100        総数        00000    
#> 10 020      人口     100        総数        00000    
#> # ℹ 4,190 more rows
#> # ℹ 6 more variables: 地域_時系列 <chr>, time_code <chr>,
#> #   `時間軸（調査年）` <chr>, unit <chr>, value <dbl>,
#> #   annotation <chr>
```


```r
estat_pop_alien <- estat_getStatsData(appId = appId, statsDataId = "0003448219")
#> Fetching record 1-87... (total: 87 records)
estat_pop_alien
#> # A tibble: 87 × 15
#>    tab_code 表章項目 cat01_code 人口及び人口増減 cat02_code
#>    <chr>    <chr>    <chr>      <chr>            <chr>     
#>  1 008      人口     204        人口             000       
#>  2 008      人口     204        人口             000       
#>  3 008      人口     204        人口             000       
#>  4 008      人口     204        人口             000       
#>  5 008      人口     204        人口             000       
#>  6 008      人口     204        人口             000       
#>  7 008      人口     204        人口             001       
#>  8 008      人口     204        人口             001       
#>  9 008      人口     204        人口             001       
#> 10 008      人口     204        人口             001       
#> # ℹ 77 more rows
#> # ℹ 10 more variables: 男女別 <chr>, cat03_code <chr>,
#> #   人口 <chr>, area_code <chr>, 全国 <chr>,
#> #   time_code <chr>, `時間軸（年間）` <chr>, unit <chr>,
#> #   value <dbl>, annotation <chr>
```


```r
estat_pop_alien2 <- estat_getStatsData(appId = appId, statsDataId = "0004001640")
#> Fetching record 1-87... (total: 87 records)
estat_pop_alien2
#> # A tibble: 87 × 15
#>    tab_code 表章項目 cat01_code 人口及び人口増減 cat02_code
#>    <chr>    <chr>    <chr>      <chr>            <chr>     
#>  1 008      人口     204        人口             000       
#>  2 008      人口     204        人口             000       
#>  3 008      人口     204        人口             000       
#>  4 008      人口     204        人口             000       
#>  5 008      人口     204        人口             000       
#>  6 008      人口     204        人口             000       
#>  7 008      人口     204        人口             001       
#>  8 008      人口     204        人口             001       
#>  9 008      人口     204        人口             001       
#> 10 008      人口     204        人口             001       
#> # ℹ 77 more rows
#> # ℹ 10 more variables: 男女別 <chr>, cat03_code <chr>,
#> #   人口 <chr>, area_code <chr>, 全国 <chr>,
#> #   time_code <chr>, `時間軸（年間）` <chr>, unit <chr>,
#> #   value <dbl>, annotation <chr>
```
0003445244


```r
estat_pop_alien0 <- estat_getStatsData(appId = appId, lang = "E", statsDataId = "0003445244")
#> Fetching record 1-100000... (total: 100215 records)
#> Fetching record 100001-100215... (total: 100215 records)
estat_pop_alien0
#> # A tibble: 100,215 × 13
#>    tab_code tab_name cat01_code Sex   cat02_code Nationality
#>    <chr>    <chr>    <chr>      <chr> <chr>      <chr>      
#>  1 2020_01  Populat… 0          Total 0          Total      
#>  2 2020_01  Populat… 0          Total 0          Total      
#>  3 2020_01  Populat… 0          Total 0          Total      
#>  4 2020_01  Populat… 0          Total 0          Total      
#>  5 2020_01  Populat… 0          Total 0          Total      
#>  6 2020_01  Populat… 0          Total 0          Total      
#>  7 2020_01  Populat… 0          Total 0          Total      
#>  8 2020_01  Populat… 0          Total 0          Total      
#>  9 2020_01  Populat… 0          Total 0          Total      
#> 10 2020_01  Populat… 0          Total 0          Total      
#> # ℹ 100,205 more rows
#> # ℹ 7 more variables: area_code <chr>,
#> #   `Japan, Prefectures, Municipalities` <chr>,
#> #   time_code <chr>, Time <chr>, unit <chr>, value <dbl>,
#> #   annotation <chr>
```
…
```r
estat_pop_alien2020 <- estat_getStatsData(appId = appId, statsDataId = "0003445244")
#> Fetching record 1-100000... (total: 100215 records)
#> Fetching record 100001-100215... (total: 100215 records)
estat_pop_alien2020
#> # A tibble: 100,215 × 13
#>    tab_code 表章事項 cat01_code 男女  cat02_code 国籍 
#>    <chr>    <chr>    <chr>      <chr> <chr>      <chr>
#>  1 2020_01  人口     0          総数  0          総数 
#>  2 2020_01  人口     0          総数  0          総数 
#>  3 2020_01  人口     0          総数  0          総数 
#>  4 2020_01  人口     0          総数  0          総数 
#>  5 2020_01  人口     0          総数  0          総数 
#>  6 2020_01  人口     0          総数  0          総数 
#>  7 2020_01  人口     0          総数  0          総数 
#>  8 2020_01  人口     0          総数  0          総数 
#>  9 2020_01  人口     0          総数  0          総数 
#> 10 2020_01  人口     0          総数  0          総数 
#> # ℹ 100,205 more rows
#> # ℹ 7 more variables: area_code <chr>,
#> #   `全国，都道府県，市区町村` <chr>, time_code <chr>,
#> #   `時間軸（年次）` <chr>, unit <chr>, value <dbl>,
#> #   annotation <chr>
```
…
