Chapter 3 はじめてのデータサイエンス | データサイエンスをはじめましょう - Data Science for All -
…
pull(distinct(df_gdp, country))

と同じです。どんどん、かっこの中に入れ子になって複雑になるので、一つ一つのステップを、順に書いたものが、最初のものになります。

df_gdp |> head()
df_gdp |> str()

なども可能です。かっこの中に最初に入るものが直前のもの、ここでは、データになっています。

3.2.4 必要に応じて整形 Transform data

変数が多いので、日本の部分だけ filter を使って選択します。country が Japan と一致する場合のみを選択するときは、== を使います。数値ではないので、引用符をつけます。半角を使ってください。

df_gdp |> filter(country == "Japan")
#> # A tibble: 62 × 13
#>    country iso2c iso3c  year     gdp status lastupdated
#>    <chr>   <chr> <chr> <dbl>   <dbl> <lgl>  <date>     
#>  1 Japan   JP    JPN    2021 4.94e12 NA     2022-12-22 
#>  2 Japan   JP    JPN    2020 5.04e12 NA     2022-12-22 
#>  3 Japan   JP    JPN    2019 5.12e12 NA     2022-12-22 
#>  4 Japan   JP    JPN    2018 5.04e12 NA     2022-12-22 
#>  5 Japan   JP    JPN    2017 4.93e12 NA     2022-12-22 
#>  6 Japan   JP    JPN    2016 5.00e12 NA     2022-12-22 
#>  7 Japan   JP    JPN    2015 4.44e12 NA     2022-12-22 
#>  8 Japan   JP    JPN    2014 4.90e12 NA     2022-12-22 
#>  9 Japan   JP    JPN    2013 5.21e12 NA     2022-12-22 
#> 10 Japan   JP    JPN    2012 6.27e12 NA     2022-12-22 
#> # ℹ 52 more rows
#> # ℹ 6 more variables: region <chr>, capital <chr>,
#> #   longitude <dbl>, latitude <dbl>, income <chr>,
#> #   lending <chr>
…
df_gdp |> drop_na(gdp) |> ggplot(aes(x = year)) + geom_bar()

バー・グラフを使いますが、gdp の値が、欠損値（NA: not available）のデータを削除してから、グラフを描きます。

3.2.7.2 2021年のGDPの降順での表示（１）

最新の2021年のデータはすべてあるわけではなさそうですが、gdp の値が大きい順に並べてみましょう。

df_gdp |> filter(year == 2021) |> drop_na(gdp) |> arrange(desc(gdp))
#> # A tibble: 245 × 13
#>    country      iso2c iso3c  year     gdp status lastupdated
#>    <chr>        <chr> <chr> <dbl>   <dbl> <lgl>  <date>     
#>  1 World        1W    WLD    2021 9.65e13 NA     2022-12-22 
#>  2 High income  XD    <NA>   2021 5.98e13 NA     2022-12-22 
#>  3 OECD members OE    OED    2021 5.83e13 NA     2022-12-22 
#>  4 Post-demogr… V4    PST    2021 5.50e13 NA     2022-12-22 
#>  5 IDA & IBRD … ZT    IBT    2021 3.80e13 NA     2022-12-22 
#>  6 Low & middl… XO    LMY    2021 3.64e13 NA     2022-12-22 
#>  7 Middle inco… XP    MIC    2021 3.58e13 NA     2022-12-22 
#>  8 IBRD only    XF    IBD    2021 3.55e13 NA     2022-12-22 
#>  9 East Asia &… Z4    EAS    2021 3.09e13 NA     2022-12-22 
#> 10 Upper middl… XT    <NA>   2021 2.71e13 NA     2022-12-22 
#> # ℹ 235 more rows
#> # ℹ 6 more variables: region <chr>, capital <chr>,
#> #   longitude <dbl>, latitude <dbl>, income <chr>,
#> #   lending <chr>

3.2.7.3 2021年のGDPの降順での表示（２）

最初に、World と表示され、グループや、カテゴリーのデータもあるようですから、それを、まず、削除することが必要です。region の列を見ると、World などは、Aggregates となっているので、そのようなものを削除すればよさそうです。数値の大きい順に並べたいので、desc 降順（descending order）にします。

df_gdp |> filter(year == 2021, region != "Aggregates") |> 
  drop_na(gdp) |> arrange(desc(gdp))
#> # A tibble: 196 × 13
#>    country      iso2c iso3c  year     gdp status lastupdated
#>    <chr>        <chr> <chr> <dbl>   <dbl> <lgl>  <date>     
#>  1 United Stat… US    USA    2021 2.33e13 NA     2022-12-22 
#>  2 China        CN    CHN    2021 1.77e13 NA     2022-12-22 
#>  3 Japan        JP    JPN    2021 4.94e12 NA     2022-12-22 
#>  4 Germany      DE    DEU    2021 4.26e12 NA     2022-12-22 
#>  5 India        IN    IND    2021 3.18e12 NA     2022-12-22 
#>  6 United King… GB    GBR    2021 3.13e12 NA     2022-12-22 
#>  7 France       FR    FRA    2021 2.96e12 NA     2022-12-22 
#>  8 Italy        IT    ITA    2021 2.11e12 NA     2022-12-22 
#>  9 Canada       CA    CAN    2021 1.99e12 NA     2022-12-22 
#> 10 Korea, Rep.  KR    KOR    2021 1.81e12 NA     2022-12-22 
#> # ℹ 186 more rows
#> # ℹ 6 more variables: region <chr>, capital <chr>,
#> #   longitude <dbl>, latitude <dbl>, income <chr>,
#> #   lending <chr>
…
