Chapter 29 探索的データ解析 | データサイエンスをはじめましょう - Data Science for All -
…
EDAは、あらゆるデータ分析において重要な役割を担います。EDA によって、課題解決のいとぐちを発見することもありますし、他の課題との関係性を発見する場合もあります。EDAを使用してデータの問題や品質を確認したり、データが信頼できるものであるかを見極める問いを作成できる場合もあります。

29.2 探索的データ解析 (EDA) の一例

WDI の一つの指標を使って、流れを見てみましょう。

29.2.1 データの取得と読み込み - Data Import

NY.GDP.PCAP.CD: GDP per capita (current US$)

df_wdi_gdppcap <- WDI(country = "all", indicator = c(gdp_pcap = "NY.GDP.PCAP.CD"))
write_csv(df_wdi_gdppcap, "./data/df_wdi_gdppcap.csv")

df_wdi_gdppcap
#> # A tibble: 16,492 × 5
#>    country                     iso2c iso3c  year gdp_pcap
#>    <chr>                       <chr> <chr> <dbl>    <dbl>
#>  1 Africa Eastern and Southern ZH    AFE    2021    1550.
#>  2 Africa Eastern and Southern ZH    AFE    2020    1364.
#>  3 Africa Eastern and Southern ZH    AFE    2019    1512.
#>  4 Africa Eastern and Southern ZH    AFE    2018    1565.
#>  5 Africa Eastern and Southern ZH    AFE    2017    1629.
#>  6 Africa Eastern and Southern ZH    AFE    2016    1444.
#>  7 Africa Eastern and Southern ZH    AFE    2015    1539.
#>  8 Africa Eastern and Southern ZH    AFE    2014    1719.
#>  9 Africa Eastern and Southern ZH    AFE    2013    1730.
#> 10 Africa Eastern and Southern ZH    AFE    2012    1759.
#> # ℹ 16,482 more rows

29.2.2 データ変形・整形 - Data Transformation

29.2.2.1 列を select

どの変数について分析するかを選ぶ。

df_wdi_gdppcap_small <- df_wdi_gdppcap %>% 
  select(country, year, gdp_pcap)
df_wdi_gdppcap_small
#> # A tibble: 16,492 × 3
#>    country                      year gdp_pcap
#>    <chr>                       <dbl>    <dbl>
#>  1 Africa Eastern and Southern  2021    1550.
#>  2 Africa Eastern and Southern  2020    1364.
#>  3 Africa Eastern and Southern  2019    1512.
#>  4 Africa Eastern and Southern  2018    1565.
#>  5 Africa Eastern and Southern  2017    1629.
#>  6 Africa Eastern and Southern  2016    1444.
#>  7 Africa Eastern and Southern  2015    1539.
#>  8 Africa Eastern and Southern  2014    1719.
#>  9 Africa Eastern and Southern  2013    1730.
#> 10 Africa Eastern and Southern  2012    1759.
#> # ℹ 16,482 more rows

29.2.2.2 行を filter

いくつかの国に、フォーカスして調べる。

df_wdi_gdppcap_short <- df_wdi_gdppcap %>% 
  filter(country %in% c("Japan", "Germany", "United States"))
df_wdi_gdppcap_short
#> # A tibble: 186 × 5
#>    country iso2c iso3c  year gdp_pcap
#>    <chr>   <chr> <chr> <dbl>    <dbl>
#>  1 Germany DE    DEU    2021   51204.
#>  2 Germany DE    DEU    2020   46773.
#>  3 Germany DE    DEU    2019   46794.
#>  4 Germany DE    DEU    2018   47939.
#>  5 Germany DE    DEU    2017   44653.
#>  6 Germany DE    DEU    2016   42136.
#>  7 Germany DE    DEU    2015   41103.
#>  8 Germany DE    DEU    2014   48024.
#>  9 Germany DE    DEU    2013   46299.
#> 10 Germany DE    DEU    2012   43856.
#> # ℹ 176 more rows

列（変数）と、行（国）の選択を続けて、実行すると次のようになる。
一つ一つ変形したデータ（オブジェクト）に名前をつけて、保存する必要がないので、パイプ（%>%）の活用は有用である。

df_wdi_gdppcap_small_short <- df_wdi_gdppcap %>% select(country, year, gdp_pcap) %>%
  filter(country %in% c("Japan", "Germany", "United States"))
df_wdi_gdppcap_small_short
#> # A tibble: 186 × 3
#>    country  year gdp_pcap
#>    <chr>   <dbl>    <dbl>
#>  1 Germany  2021   51204.
#>  2 Germany  2020   46773.
#>  3 Germany  2019   46794.
#>  4 Germany  2018   47939.
#>  5 Germany  2017   44653.
#>  6 Germany  2016   42136.
#>  7 Germany  2015   41103.
#>  8 Germany  2014   48024.
#>  9 Germany  2013   46299.
#> 10 Germany  2012   43856.
#> # ℹ 176 more rows
…
