Chapter 20 Modeling | データサイエンスをはじめましょう - Data Science for All -
…
wdi_world <- WDI(country = "all", indicator = c(gdpPcap = "NY.GDP.PCAP.KD", lifeExp = "SP.DYN.LE00.IN", pop = "SP.POP.TOTL", research = "GB.XPD.RSDV.GD.ZS", military = "MS.MIL.XPND.GD.ZS", education = "SE.XPD.TOTL.GD.ZS"), 1990, extra = TRUE, cache = wdi_cache)

#> Rows: 8778 Columns: 18
#> ── Column specification ────────────────────────────────────
#> Delimiter: ","
#> chr  (7): country, iso2c, iso3c, region, capital, income...
#> dbl  (9): year, gdpPcap, lifeExp, pop, research, militar...
#> lgl  (1): status
#> date (1): lastupdated
#> 
#> ℹ Use `spec()` to retrieve the full column specification for this data.
#> ℹ Specify the column types or set `show_col_types = FALSE` to quiet this message.

wdi_world
#> # A tibble: 8,778 × 18
#>    country     iso2c iso3c  year status lastupdated gdpPcap
#>    <chr>       <chr> <chr> <dbl> <lgl>  <date>        <dbl>
#>  1 Afghanistan AF    AFG    1990 NA     2023-07-25      NA 
#>  2 Afghanistan AF    AFG    1991 NA     2023-07-25      NA 
#>  3 Afghanistan AF    AFG    1993 NA     2023-07-25      NA 
#>  4 Afghanistan AF    AFG    2015 NA     2023-07-25     592.
#>  5 Afghanistan AF    AFG    1999 NA     2023-07-25      NA 
#>  6 Afghanistan AF    AFG    1992 NA     2023-07-25      NA 
#>  7 Afghanistan AF    AFG    1996 NA     2023-07-25      NA 
#>  8 Afghanistan AF    AFG    1997 NA     2023-07-25      NA 
#>  9 Afghanistan AF    AFG    2002 NA     2023-07-25     360.
#> 10 Afghanistan AF    AFG    2013 NA     2023-07-25     608.
#> # ℹ 8,768 more rows
#> # ℹ 11 more variables: lifeExp <dbl>, pop <dbl>,
#> #   research <dbl>, military <dbl>, education <dbl>,
#> #   region <chr>, capital <chr>, longitude <dbl>,
#> #   latitude <dbl>, income <chr>, lending <chr>
…
wdi_world_el %>% filter(year==2020) %>% arrange(desc(education))
#> # A tibble: 156 × 10
#>    country    year education lifeExp gdpPcap    pop research
#>    <chr>     <dbl>     <dbl>   <dbl>   <dbl>  <dbl>    <dbl>
#>  1 Marshall…  2020     13.6     65.0   5041. 4.34e4   NA    
#>  2 Solomon …  2020     12.8     70.2   2080. 6.91e5   NA    
#>  3 Bolivia    2020      9.84    64.5   2920. 1.19e7   NA    
#>  4 Namibia    2020      9.45    62.8   4152. 2.49e6   NA    
#>  5 Sierra L…  2020      8.81    59.8    608. 8.23e6   NA    
#>  6 Botswana   2020      8.74    65.6   5811. 2.55e6   NA    
#>  7 Saudi Ar…  2020      7.81    76.2  18857. 3.60e7    0.522
#>  8 Iceland    2020      7.72    83.1  52442. 3.66e5    2.47 
#>  9 Lesotho    2020      7.67    54.7    969. 2.25e6   NA    
#> 10 Cabo Ver…  2020      7.58    74.8   2950. 5.83e5   NA    
#> # ℹ 146 more rows
#> # ℹ 3 more variables: military <dbl>, region <chr>,
#> #   income <chr>

wdi_world_el %>% filter(year==2020) %>% arrange(desc(education))
#> # A tibble: 156 × 10
#>    country    year education lifeExp gdpPcap    pop research
#>    <chr>     <dbl>     <dbl>   <dbl>   <dbl>  <dbl>    <dbl>
#>  1 Marshall…  2020     13.6     65.0   5041. 4.34e4   NA    
#>  2 Solomon …  2020     12.8     70.2   2080. 6.91e5   NA    
#>  3 Bolivia    2020      9.84    64.5   2920. 1.19e7   NA    
#>  4 Namibia    2020      9.45    62.8   4152. 2.49e6   NA    
#>  5 Sierra L…  2020      8.81    59.8    608. 8.23e6   NA    
#>  6 Botswana   2020      8.74    65.6   5811. 2.55e6   NA    
#>  7 Saudi Ar…  2020      7.81    76.2  18857. 3.60e7    0.522
#>  8 Iceland    2020      7.72    83.1  52442. 3.66e5    2.47 
#>  9 Lesotho    2020      7.67    54.7    969. 2.25e6   NA    
#> 10 Cabo Ver…  2020      7.58    74.8   2950. 5.83e5   NA    
#> # ℹ 146 more rows
#> # ℹ 3 more variables: military <dbl>, region <chr>,
#> #   income <chr>
…
