Chapter 24 World Bank | データサイエンスをはじめましょう - Data Science for All -
…
#> Rows: 16492 Columns: 13
#> ── Column specification ────────────────────────────────────
#> Delimiter: ","
#> chr  (7): country, iso2c, iso3c, region, capital, income...
#> dbl  (4): year, gdp, longitude, latitude
#> lgl  (1): status
#> date (1): lastupdated
#> 
#> ℹ Use `spec()` to retrieve the full column specification for this data.
#> ℹ Specify the column types or set `show_col_types = FALSE` to quiet this message.
#> # A tibble: 196 × 13
#>    country      iso2c iso3c  year     gdp status lastupdated
#>    <chr>        <chr> <chr> <dbl>   <dbl> <lgl>  <date>     
#>  1 United Stat… US    USA    2021 2.33e13 NA     2022-12-22 
#>  2 China        CN    CHN    2021 1.77e13 NA     2022-12-22 
#>  3 Japan        JP    JPN    2021 4.94e12 NA     2022-12-22 
#>  4 Germany      DE    DEU    2021 4.26e12 NA     2022-12-22 
#>  5 India        IN    IND    2021 3.18e12 NA     2022-12-22 
#>  6 United King… GB    GBR    2021 3.13e12 NA     2022-12-22 
#>  7 France       FR    FRA    2021 2.96e12 NA     2022-12-22 
#>  8 Italy        IT    ITA    2021 2.11e12 NA     2022-12-22 
#>  9 Canada       CA    CAN    2021 1.99e12 NA     2022-12-22 
#> 10 Korea, Rep.  KR    KOR    2021 1.81e12 NA     2022-12-22 
#> # ℹ 186 more rows
#> # ℹ 6 more variables: region <chr>, capital <chr>,
#> #   longitude <dbl>, latitude <dbl>, income <chr>,
#> #   lending <chr>
…
WDI パッケージ の使い方を紹介します。

WDI パッケージで、データをダウンロードしたり、探したり、詳細情報を得たりできます。

24.2.1 指標 WDI 検索

まず、検索です。上で、サイトから調べる方法を紹介しましたが、WDI パッケージの、WDIsearch でも探すことができます。詳細は、右下の窓枠の Help タブの検索窓に、WDIsearch といれて調べて見てください。ここでは、二種類の検索方法を紹介します。

24.2.1.1 検索例 1（WDI名）

WDI 名に、ある文字列が含まれているものを検索します。検索文字列は、大文字・小文字は関係ありません。

WDIsearch(string = "gdp", field = "name", short = TRUE, cache = NULL) %>%
  as_tibble()
#> # A tibble: 540 × 2
#>    indicator            name                                
#>    <chr>                <chr>                               
#>  1 5.51.01.10.gdp       "Per capita GDP growth"             
#>  2 6.0.GDP_current      "GDP (current $)"                   
#>  3 6.0.GDP_growth       "GDP growth (annual %)"             
#>  4 6.0.GDP_usd          "GDP (constant 2005 $)"             
#>  5 6.0.GDPpc_constant   "GDP per capita, PPP (constant 2011…
#>  6 BG.GSR.NFSV.GD.ZS    "Trade in services (% of GDP)"      
#>  7 BG.KAC.FNEI.GD.PP.ZS "Gross private capital flows (% of …
#>  8 BG.KAC.FNEI.GD.ZS    "Gross private capital flows (% of …
#>  9 BG.KLT.DINV.GD.PP.ZS "Gross foreign direct investment (%…
#> 10 BG.KLT.DINV.GD.ZS    "Gross foreign direct investment (%…
#> # ℹ 530 more rows
…
country は、初期値も、“all” となっていますから、最も簡単なのは、indicator に、指標コードを入れることです。引用符を忘れずに。

df_gdp1 <- WDI(country = "all", indicator = "NY.GDP.MKTP.CD")
df_gdp1

#> Rows: 16492 Columns: 5
#> ── Column specification ────────────────────────────────────
#> Delimiter: ","
#> chr (3): country, iso2c, iso3c
#> dbl (2): year, NY.GDP.MKTP.CD
#> 
#> ℹ Use `spec()` to retrieve the full column specification for this data.
#> ℹ Specify the column types or set `show_col_types = FALSE` to quiet this message.
#> # A tibble: 16,492 × 5
#>    country                  iso2c iso3c  year NY.GDP.MKTP.CD
#>    <chr>                    <chr> <chr> <dbl>          <dbl>
#>  1 Africa Eastern and Sout… ZH    AFE    2021        1.08e12
#>  2 Africa Eastern and Sout… ZH    AFE    2020        9.27e11
#>  3 Africa Eastern and Sout… ZH    AFE    2019        1.00e12
#>  4 Africa Eastern and Sout… ZH    AFE    2018        1.01e12
#>  5 Africa Eastern and Sout… ZH    AFE    2017        1.02e12
#>  6 Africa Eastern and Sout… ZH    AFE    2016        8.83e11
#>  7 Africa Eastern and Sout… ZH    AFE    2015        9.25e11
#>  8 Africa Eastern and Sout… ZH    AFE    2014        1.00e12
#>  9 Africa Eastern and Sout… ZH    AFE    2013        9.83e11
#> 10 Africa Eastern and Sout… ZH    AFE    2012        9.73e11
#> # ℹ 16,482 more rows
…
24.2.2.2 ダウンロード例 1-2

df_gdp2 <- WDI(country = "all", indicator = c(gdp = "NY.GDP.MKTP.CD"))
df_gdp2

#> Rows: 16492 Columns: 5
#> ── Column specification ────────────────────────────────────
#> Delimiter: ","
#> chr (3): country, iso2c, iso3c
#> dbl (2): year, gdp
#> 
#> ℹ Use `spec()` to retrieve the full column specification for this data.
#> ℹ Specify the column types or set `show_col_types = FALSE` to quiet this message.
#> # A tibble: 16,492 × 5
#>    country                     iso2c iso3c  year     gdp
#>    <chr>                       <chr> <chr> <dbl>   <dbl>
#>  1 Africa Eastern and Southern ZH    AFE    2021 1.08e12
#>  2 Africa Eastern and Southern ZH    AFE    2020 9.27e11
#>  3 Africa Eastern and Southern ZH    AFE    2019 1.00e12
#>  4 Africa Eastern and Southern ZH    AFE    2018 1.01e12
#>  5 Africa Eastern and Southern ZH    AFE    2017 1.02e12
#>  6 Africa Eastern and Southern ZH    AFE    2016 8.83e11
#>  7 Africa Eastern and Southern ZH    AFE    2015 9.25e11
#>  8 Africa Eastern and Southern ZH    AFE    2014 1.00e12
#>  9 Africa Eastern and Southern ZH    AFE    2013 9.83e11
#> 10 Africa Eastern and Southern ZH    AFE    2012 9.73e11
#> # ℹ 16,482 more rows
…
df_gdp3 <- WDI(country = "all", indicator = c(gdp = "NY.GDP.MKTP.CD"), 
               extra=TRUE, cache=wdi_cache)
df_gdp3

#> Rows: 16492 Columns: 13
#> ── Column specification ────────────────────────────────────
#> Delimiter: ","
#> chr  (7): country, iso2c, iso3c, region, capital, income...
#> dbl  (4): year, gdp, longitude, latitude
#> lgl  (1): status
#> date (1): lastupdated
#> 
#> ℹ Use `spec()` to retrieve the full column specification for this data.
#> ℹ Specify the column types or set `show_col_types = FALSE` to quiet this message.
#> # A tibble: 16,492 × 13
#>    country     iso2c iso3c  year      gdp status lastupdated
#>    <chr>       <chr> <chr> <dbl>    <dbl> <lgl>  <date>     
#>  1 Afghanistan AF    AFG    2021  1.48e10 NA     2022-12-22 
#>  2 Afghanistan AF    AFG    2020  2.01e10 NA     2022-12-22 
#>  3 Afghanistan AF    AFG    2019  1.89e10 NA     2022-12-22 
#>  4 Afghanistan AF    AFG    2018  1.84e10 NA     2022-12-22 
#>  5 Afghanistan AF    AFG    2017  1.89e10 NA     2022-12-22 
#>  6 Afghanistan AF    AFG    2016  1.80e10 NA     2022-12-22 
#>  7 Afghanistan AF    AFG    2015  2.00e10 NA     2022-12-22 
#>  8 Afghanistan AF    AFG    2014  2.06e10 NA     2022-12-22 
#>  9 Afghanistan AF    AFG    2013  2.06e10 NA     2022-12-22 
#> 10 Afghanistan AF    AFG    2012  2.02e10 NA     2022-12-22 
#> # ℹ 16,482 more rows
#> # ℹ 6 more variables: region <chr>, capital <chr>,
#> #   longitude <dbl>, latitude <dbl>, income <chr>,
#> #   lending <chr>
…
df_gdp4 <- WDI(country = c("CN","GB","JP","IN","US","DE"), 
               indicator = c(gdp = "NY.GDP.MKTP.CD"), extra=TRUE, cache=wdi_cache)
df_gdp4

#> Rows: 372 Columns: 13
#> ── Column specification ────────────────────────────────────
#> Delimiter: ","
#> chr  (7): country, iso2c, iso3c, region, capital, income...
#> dbl  (4): year, gdp, longitude, latitude
#> lgl  (1): status
#> date (1): lastupdated
#> 
#> ℹ Use `spec()` to retrieve the full column specification for this data.
#> ℹ Specify the column types or set `show_col_types = FALSE` to quiet this message.
#> # A tibble: 372 × 13
#>    country iso2c iso3c  year     gdp status lastupdated
#>    <chr>   <chr> <chr> <dbl>   <dbl> <lgl>  <date>     
#>  1 China   CN    CHN    2021 1.77e13 NA     2022-12-22 
#>  2 China   CN    CHN    2020 1.47e13 NA     2022-12-22 
#>  3 China   CN    CHN    2019 1.43e13 NA     2022-12-22 
#>  4 China   CN    CHN    2018 1.39e13 NA     2022-12-22 
#>  5 China   CN    CHN    2017 1.23e13 NA     2022-12-22 
#>  6 China   CN    CHN    2016 1.12e13 NA     2022-12-22 
#>  7 China   CN    CHN    2015 1.11e13 NA     2022-12-22 
#>  8 China   CN    CHN    2014 1.05e13 NA     2022-12-22 
#>  9 China   CN    CHN    2013 9.57e12 NA     2022-12-22 
#> 10 China   CN    CHN    2012 8.53e12 NA     2022-12-22 
#> # ℹ 362 more rows
#> # ℹ 6 more variables: region <chr>, capital <chr>,
#> #   longitude <dbl>, latitude <dbl>, income <chr>,
#> #   lending <chr>
…
#> Rows: 23972 Columns: 14
#> ── Column specification ────────────────────────────────────
#> Delimiter: ","
#> chr  (7): country, iso2c, iso3c, region, capital, income...
#> dbl  (5): year, gdp_deflator, cpi_price, longitude, lati...
#> lgl  (1): status
#> date (1): lastupdated
#> 
#> ℹ Use `spec()` to retrieve the full column specification for this data.
#> ℹ Specify the column types or set `show_col_types = FALSE` to quiet this message.
#> # A tibble: 23,972 × 14
#>    country iso2c iso3c  year status lastupdated gdp_deflator
#>    <chr>   <chr> <chr> <dbl> <lgl>  <date>             <dbl>
#>  1 Advanc… AME   <NA>   1987 NA     2020-07-27            NA
#>  2 Advanc… AME   <NA>   1988 NA     2020-07-27            NA
#>  3 Advanc… AME   <NA>   1989 NA     2020-07-27            NA
#>  4 Advanc… AME   <NA>   1990 NA     2020-07-27            NA
#>  5 Advanc… AME   <NA>   1991 NA     2020-07-27            NA
#>  6 Advanc… AME   <NA>   1992 NA     2020-07-27            NA
#>  7 Advanc… AME   <NA>   1993 NA     2020-07-27            NA
#>  8 Advanc… AME   <NA>   1994 NA     2020-07-27            NA
#>  9 Advanc… AME   <NA>   1995 NA     2020-07-27            NA
#> 10 Advanc… AME   <NA>   1996 NA     2020-07-27            NA
#> # ℹ 23,962 more rows
#> # ℹ 7 more variables: cpi_price <dbl>, region <chr>,
#> #   capital <chr>, longitude <dbl>, latitude <dbl>,
#> #   income <chr>, lending <chr>
…
